[
  {
    "name": "Вудка 6м",
    "price": 1300,
    "image": "https://images.prom.ua/3144552312_w332_h300_udochka-bolonskaya-siweida.jpg",
    "id": 1,
    "color": "lightgreen",
    "isFavourite" : false
  },
  {
    "name": "Спінінг 2.7м",
    "price": 1500,
    "image": "https://safety.kiev.ua/image/cache/catalog/product/Crocodile_Biluy-1-900x900-600x600.png",
    "id": 2,
    "color": "grey",
    "isFavourite" : false
  },
  {
    "name": "Фідер 3.9м",
    "price": 2000,
    "image": "https://i.flagman.kiev.ua/goods/1432/1432981.jpg",
    "id": 3,
    "color": "black ",
    "isFavourite" : false
    
  },
  {
    "name": "Підсак 2.7м",
    "price": 500,
    "image": "https://images.prom.ua/4647752245_podsak-karpovyj-100.jpg",
    "id": 4,
    "color": "grey ",
    "isFavourite" : false
  },
  {
    "name": "Садок 2м",
    "price": 450,
    "image": "https://images.prom.ua/3986987194_w640_h640_3986987194.jpg",
    "id": 5,
    "color": "green ",
    "isFavourite" : false
  },
  {
    "name": "Чехол 130см",
    "price": 350,
    "image": "https://images.prom.ua/2713946901_chehol-trehsektsionnyj-eclipse.jpg",
    "id": 6,
    "color": "darkgreen",
    "isFavourite" : false
  },
  {
    "name": "Катушка фідерна 5000",
    "price": 1500,
    "image": "https://images.prom.ua/2713940828_katushka-c-bejtrannerom.jpg",
    "id": 7,
    "color": "grey",
    "isFavourite" : false
  },
  {
    "name": "Катушка для вудки",
    "price": 200,
    "image": "https://images.prom.ua/2640239379_katushka-inertsionnaya-xs.jpg",
    "id": 8,
    "color": "green",
    "isFavourite" : false
  },
  {
    "name": "Льоска 0.2 100м",
    "price": 250,
    "image": "https://images.prom.ua/4408789466_w332_h300_leska-3d-invisible.jpg",
    "id": 9,
    "color": "invisible ",
    "isFavourite" : false
  },
  {
    "name": "Шнур плетений 0.2 150м",
    "price": 350,
    "image": "https://images.prom.ua/2713890686_shnur-pletenyj-diwa.jpg",
    "id": 10,
    "color": "yellow",
    "isFavourite" : false
  },
  {
    "name": "Гачки №8 20 шт.",
    "price": 120,
    "image": "https://images.prom.ua/2713942953_w332_h300_kryuchok-gc-carper.jpg",
    "id": 11,
    "color": "black",
    "isFavourite" : false
  }
]